examples/mp3/sine.vcd
$date
	Tue Mar 11 02:40:10 2025
$end
$version
	Icarus Verilog
$end
$timescale
	10ns
$end
$scope module sine_tb $end
$var wire 1 ! _9b $end
$var wire 1 " _6a $end
$var wire 1 # _5a $end
$var wire 1 $ _4a $end
$var wire 1 % _49a $end
$var wire 1 & _48b $end
$var wire 1 ' _45a $end
$var wire 1 ( _3b $end
$var wire 1 ) _2a $end
$var wire 1 * _0a $end
$var reg 1 + clk $end
$scope module u0 $end
$var wire 1 + clk $end
$var wire 10 , data [9:0] $end
$var wire 1 ! _9b $end
$var wire 1 " _6a $end
$var wire 1 # _5a $end
$var wire 1 $ _4a $end
$var wire 1 % _49a $end
$var wire 1 & _48b $end
$var wire 1 ' _45a $end
$var wire 1 ( _3b $end
$var wire 1 ) _2a $end
$var wire 1 * _0a $end
$var parameter 2 - FALL $end
$var parameter 2 . PEAK $end
$var parameter 2 / RISE $end
$var parameter 2 0 TROUGH $end
$var reg 8 1 address [7:0] $end
$var reg 9 2 count [8:0] $end
$var reg 1 3 current_state $end
$scope module u1 $end
$var wire 1 + clk $end
$var wire 8 4 read_address [7:0] $end
$var wire 2 5 read_state [1:0] $end
$var parameter 2 6 FALL $end
$var parameter 64 7 INIT_FILE $end
$var parameter 2 8 PEAK $end
$var parameter 2 9 RISE $end
$var parameter 2 : TROUGH $end
$var reg 10 ; read_data [9:0] $end
$upscope $end
$upscope $end
$upscope $end
$enddefinitions $end
$comment Show the parameter values. $end
$dumpall
b10 :
b11 9
b0 8
b111001101101001011011100110010100101110011101000111100001110100 7
b1 6
b10 0
b11 /
b0 .
b1 -
$end
#0
$dumpvars
bx ;
b0 5
b0 4
03
b0 2
b0 1
bx ,
0+
x*
x)
x(
x'
x&
x%
x$
x#
x"
x!
$end
#4
0&
1'
0%
0(
0#
0*
0)
0$
0"
0!
b100000000 ,
b100000000 ;
b1 1
b1 4
b1 2
1+
#8
0+
#12
1"
1!
b10 1
b10 4
b10 2
b100000011 ,
b100000011 ;
1+
#16
0+
#20
1$
0!
b100000110 ,
b100000110 ;
b11 1
b11 4
b11 2
1+
#24
0+
#28
1)
0$
0"
1!
b100 1
b100 4
b100 2
b100001001 ,
b100001001 ;
1+
#32
0+
#36
1$
0!
b100001100 ,
b100001100 ;
b101 1
b101 4
b101 2
1+
#40
0+
#44
1"
1!
b110 1
b110 4
b110 2
b100001111 ,
b100001111 ;
1+
#48
0+
#52
1*
0)
0$
0!
b100010010 ,
b100010010 ;
b111 1
b111 4
b111 2
1+
#56
0+
#60
1$
0"
1!
b1000 1
b1000 4
b1000 2
b100010101 ,
b100010101 ;
1+
#64
0+
#68
1)
0$
b100011001 ,
b100011001 ;
b1001 1
b1001 4
b1001 2
1+
#72
0+
#76
1$
0!
b1010 1
b1010 4
b1010 2
b100011100 ,
b100011100 ;
1+
#80
0+
#84
1"
1!
b100011111 ,
b100011111 ;
b1011 1
b1011 4
b1011 2
1+
#88
0+
#92
1#
0*
0)
0$
0!
b1100 1
b1100 4
b1100 2
b100100010 ,
b100100010 ;
1+
#96
0+
#100
1$
0"
1!
b100100101 ,
b100100101 ;
b1101 1
b1101 4
b1101 2
1+
#104
0+
#108
1)
0$
0!
b1110 1
b1110 4
b1110 2
b100101000 ,
b100101000 ;
1+
#112
0+
#116
1"
1!
b100101011 ,
b100101011 ;
b1111 1
b1111 4
b1111 2
1+
#120
0+
#124
1$
0!
b10000 1
b10000 4
b10000 2
b100101110 ,
b100101110 ;
1+
#128
0+
#132
1*
0)
0$
0"
1!
b100110001 ,
b100110001 ;
b10001 1
b10001 4
b10001 2
1+
#136
0+
#140
1$
0!
b10010 1
b10010 4
b10010 2
b100110100 ,
b100110100 ;
1+
#144
0+
#148
1"
1!
b100110111 ,
b100110111 ;
b10011 1
b10011 4
b10011 2
1+
#152
0+
#156
1)
0$
b10100 1
b10100 4
b10100 2
b100111011 ,
b100111011 ;
1+
#160
0+
#164
1$
0!
b100111110 ,
b100111110 ;
b10101 1
b10101 4
b10101 2
1+
#168
0+
#172
1(
0#
0*
0)
0$
0"
1!
b10110 1
b10110 4
b10110 2
b101000001 ,
b101000001 ;
1+
#176
0+
#180
1$
0!
b101000100 ,
b101000100 ;
b10111 1
b10111 4
b10111 2
1+
#184
0+
#188
1"
1!
b11000 1
b11000 4
b11000 2
b101000111 ,
b101000111 ;
1+
#192
0+
#196
1)
0$
0!
b101001010 ,
b101001010 ;
b11001 1
b11001 4
b11001 2
1+
#200
0+
#204
1$
0"
1!
b11010 1
b11010 4
b11010 2
b101001101 ,
b101001101 ;
1+
#208
0+
#212
1*
0)
0$
0!
b101010000 ,
b101010000 ;
b11011 1
b11011 4
b11011 2
1+
#216
0+
#220
1"
1!
b11100 1
b11100 4
b11100 2
b101010011 ,
b101010011 ;
1+
#224
0+
#228
1$
0!
b101010110 ,
b101010110 ;
b11101 1
b11101 4
b11101 2
1+
#232
0+
#236
1)
0$
0"
1!
b11110 1
b11110 4
b11110 2
b101011001 ,
b101011001 ;
1+
#240
0+
#244
1"
b101011011 ,
b101011011 ;
b11111 1
b11111 4
b11111 2
1+
#248
0+
#252
1$
0!
b100000 1
b100000 4
b100000 2
b101011110 ,
b101011110 ;
1+
#256
0+
#260
1#
0*
0)
0$
0"
1!
b101100001 ,
b101100001 ;
b100001 1
b100001 4
b100001 2
1+
#264
0+
#268
1$
0!
b100010 1
b100010 4
b100010 2
b101100100 ,
b101100100 ;
1+
#272
0+
#276
1"
1!
b101100111 ,
b101100111 ;
b100011 1
b100011 4
b100011 2
1+
#280
0+
#284
1)
0$
0!
b100100 1
b100100 4
b100100 2
b101101010 ,
b101101010 ;
1+
#288
0+
#292
1$
0"
1!
b101101101 ,
b101101101 ;
b100101 1
b100101 4
b100101 2
1+
#296
0+
#300
1*
0)
0$
0!
b100110 1
b100110 4
b100110 2
b101110000 ,
b101110000 ;
1+
#304
0+
#308
1"
b101110010 ,
b101110010 ;
b100111 1
b100111 4
b100111 2
1+
#312
0+
#316
1$
0"
1!
b101000 1
b101000 4
b101000 2
b101110101 ,
b101110101 ;
1+
#320
0+
#324
1)
0$
0!
b101111000 ,
b101111000 ;
b101001 1
b101001 4
b101001 2
1+
#328
0+
#332
1"
1!
b101010 1
b101010 4
b101010 2
b101111011 ,
b101111011 ;
1+
#336
0+
#340
1$
0"
b101111101 ,
b101111101 ;
b101011 1
b101011 4
b101011 2
1+
#344
0+
#348
1%
0(
0#
0*
0)
0$
0!
b101100 1
b101100 4
b101100 2
b110000000 ,
b110000000 ;
1+
#352
0+
#356
1"
1!
b110000011 ,
b110000011 ;
b101101 1
b101101 4
b101101 2
1+
#360
0+
#364
1$
0!
b101110 1
b101110 4
b101110 2
b110000110 ,
b110000110 ;
1+
#368
0+
#372
1)
0$
0"
b110001000 ,
b110001000 ;
b101111 1
b101111 4
b101111 2
1+
#376
0+
#380
1"
1!
b110000 1
b110000 4
b110000 2
b110001011 ,
b110001011 ;
1+
#384
0+
#388
1$
0"
b110001101 ,
b110001101 ;
b110001 1
b110001 4
b110001 2
1+
#392
0+
#396
1*
0)
0$
0!
b110010 1
b110010 4
b110010 2
b110010000 ,
b110010000 ;
1+
#400
0+
#404
1"
1!
b110010011 ,
b110010011 ;
b110011 1
b110011 4
b110011 2
1+
#408
0+
#412
1$
0"
b110100 1
b110100 4
b110100 2
b110010101 ,
b110010101 ;
1+
#416
0+
#420
1)
0$
0!
b110011000 ,
b110011000 ;
b110101 1
b110101 4
b110101 2
1+
#424
0+
#428
1"
b110110 1
b110110 4
b110110 2
b110011010 ,
b110011010 ;
1+
#432
0+
#436
1$
0"
1!
b110011101 ,
b110011101 ;
b110111 1
b110111 4
b110111 2
1+
#440
0+
#444
1"
b111000 1
b111000 4
b111000 2
b110011111 ,
b110011111 ;
1+
#448
0+
#452
1#
0*
0)
0$
0!
b110100010 ,
b110100010 ;
b111001 1
b111001 4
b111001 2
1+
#456
0+
#460
1$
0"
b111010 1
b111010 4
b111010 2
b110100100 ,
b110100100 ;
1+
#464
0+
#468
1"
b110100110 ,
b110100110 ;
b111011 1
b111011 4
b111011 2
1+
#472
0+
#476
1)
0$
0"
1!
b111100 1
b111100 4
b111100 2
b110101001 ,
b110101001 ;
1+
#480
0+
#484
1"
b110101011 ,
b110101011 ;
b111101 1
b111101 4
b111101 2
1+
#488
0+
#492
1$
0"
b111110 1
b111110 4
b111110 2
b110101101 ,
b110101101 ;
1+
#496
0+
#500
1*
0)
0$
0!
b110110000 ,
b110110000 ;
b111111 1
b111111 4
b111111 2
1+
#504
0+
#508
1"
b1000000 1
b1000000 4
b1000000 2
b110110010 ,
b110110010 ;
1+
#512
0+
#516
1$
0"
b110110100 ,
b110110100 ;
b1000001 1
b1000001 4
b1000001 2
1+
#520
0+
#524
1"
b1000010 1
b1000010 4
b1000010 2
b110110110 ,
b110110110 ;
1+
#528
0+
#532
1)
0$
0"
1!
b110111001 ,
b110111001 ;
b1000011 1
b1000011 4
b1000011 2
1+
#536
0+
#540
1"
b1000100 1
b1000100 4
b1000100 2
b110111011 ,
b110111011 ;
1+
#544
0+
#548
1$
0"
b110111101 ,
b110111101 ;
b1000101 1
b1000101 4
b1000101 2
1+
#552
0+
#556
1"
b1000110 1
b1000110 4
b1000110 2
b110111111 ,
b110111111 ;
1+
#560
0+
#564
1(
0#
0*
0)
0$
0"
b111000001 ,
b111000001 ;
b1000111 1
b1000111 4
b1000111 2
1+
#568
0+
#572
1"
b1001000 1
b1001000 4
b1001000 2
b111000011 ,
b111000011 ;
1+
#576
0+
#580
1$
0"
b111000101 ,
b111000101 ;
b1001001 1
b1001001 4
b1001001 2
1+
#584
0+
#588
1"
b1001010 1
b1001010 4
b1001010 2
b111000111 ,
b111000111 ;
1+
#592
0+
#596
1)
0$
0"
b111001001 ,
b111001001 ;
b1001011 1
b1001011 4
b1001011 2
1+
#600
0+
#604
1"
b1001100 1
b1001100 4
b1001100 2
b111001011 ,
b111001011 ;
1+
#608
0+
#612
1$
0"
b111001101 ,
b111001101 ;
b1001101 1
b1001101 4
b1001101 2
1+
#616
0+
#620
1"
b1001110 1
b1001110 4
b1001110 2
b111001111 ,
b111001111 ;
1+
#624
0+
#628
1*
0)
0$
0"
0!
b111010000 ,
b111010000 ;
b1001111 1
b1001111 4
b1001111 2
1+
#632
0+
#636
1"
b1010000 1
b1010000 4
b1010000 2
b111010010 ,
b111010010 ;
1+
#640
0+
#644
1$
0"
b111010100 ,
b111010100 ;
b1010001 1
b1010001 4
b1010001 2
1+
#648
0+
#652
1"
b1010010 1
b1010010 4
b1010010 2
b111010110 ,
b111010110 ;
1+
#656
0+
#660
1!
b111010111 ,
b111010111 ;
b1010011 1
b1010011 4
b1010011 2
1+
#664
0+
#668
1)
0$
0"
b1010100 1
b1010100 4
b1010100 2
b111011001 ,
b111011001 ;
1+
#672
0+
#676
1"
b111011011 ,
b111011011 ;
b1010101 1
b1010101 4
b1010101 2
1+
#680
0+
#684
1$
0"
0!
b1010110 1
b1010110 4
b1010110 2
b111011100 ,
b111011100 ;
1+
#688
0+
#692
1"
b111011110 ,
b111011110 ;
b1010111 1
b1010111 4
b1010111 2
1+
#696
0+
#700
1!
b1011000 1
b1011000 4
b1011000 2
b111011111 ,
b111011111 ;
1+
#704
0+
#708
1#
0*
0)
0$
0"
b111100001 ,
b111100001 ;
b1011001 1
b1011001 4
b1011001 2
1+
#712
0+
#716
1"
0!
b1011010 1
b1011010 4
b1011010 2
b111100010 ,
b111100010 ;
1+
#720
0+
#724
1$
0"
b111100100 ,
b111100100 ;
b1011011 1
b1011011 4
b1011011 2
1+
#728
0+
#732
1!
b1011100 1
b1011100 4
b1011100 2
b111100101 ,
b111100101 ;
1+
#736
0+
#740
1"
0!
b111100110 ,
b111100110 ;
b1011101 1
b1011101 4
b1011101 2
1+
#744
0+
#748
1)
0$
0"
b1011110 1
b1011110 4
b1011110 2
b111101000 ,
b111101000 ;
1+
#752
0+
#756
1!
b111101001 ,
b111101001 ;
b1011111 1
b1011111 4
b1011111 2
1+
#760
0+
#764
1"
0!
b1100000 1
b1100000 4
b1100000 2
b111101010 ,
b111101010 ;
1+
#768
0+
#772
1$
0"
b111101100 ,
b111101100 ;
b1100001 1
b1100001 4
b1100001 2
1+
#776
0+
#780
1!
b1100010 1
b1100010 4
b1100010 2
b111101101 ,
b111101101 ;
1+
#784
0+
#788
1"
0!
b111101110 ,
b111101110 ;
b1100011 1
b1100011 4
b1100011 2
1+
#792
0+
#796
1!
b1100100 1
b1100100 4
b1100100 2
b111101111 ,
b111101111 ;
1+
#800
0+
#804
1*
0)
0$
0"
0!
b111110000 ,
b111110000 ;
b1100101 1
b1100101 4
b1100101 2
1+
#808
0+
#812
1!
b1100110 1
b1100110 4
b1100110 2
b111110001 ,
b111110001 ;
1+
#816
0+
#820
1"
0!
b111110010 ,
b111110010 ;
b1100111 1
b1100111 4
b1100111 2
1+
#824
0+
#828
1!
b1101000 1
b1101000 4
b1101000 2
b111110011 ,
b111110011 ;
1+
#832
0+
#836
1$
0"
0!
b111110100 ,
b111110100 ;
b1101001 1
b1101001 4
b1101001 2
1+
#840
0+
#844
1!
b1101010 1
b1101010 4
b1101010 2
b111110101 ,
b111110101 ;
1+
#848
0+
#852
1"
0!
b111110110 ,
b111110110 ;
b1101011 1
b1101011 4
b1101011 2
1+
#856
0+
#860
1!
b1101100 1
b1101100 4
b1101100 2
b111110111 ,
b111110111 ;
1+
#864
0+
#868
b1101101 1
b1101101 4
b1101101 2
1+
#872
0+
#876
1)
0$
0"
0!
b1101110 1
b1101110 4
b1101110 2
b111111000 ,
b111111000 ;
1+
#880
0+
#884
1!
b111111001 ,
b111111001 ;
b1101111 1
b1101111 4
b1101111 2
1+
#888
0+
#892
b1110000 1
b1110000 4
b1110000 2
1+
#896
0+
#900
1"
0!
b111111010 ,
b111111010 ;
b1110001 1
b1110001 4
b1110001 2
1+
#904
0+
#908
1!
b1110010 1
b1110010 4
b1110010 2
b111111011 ,
b111111011 ;
1+
#912
0+
#916
b1110011 1
b1110011 4
b1110011 2
1+
#920
0+
#924
1$
0"
0!
b1110100 1
b1110100 4
b1110100 2
b111111100 ,
b111111100 ;
1+
#928
0+
#932
b1110101 1
b1110101 4
b1110101 2
1+
#936
0+
#940
1!
b1110110 1
b1110110 4
b1110110 2
b111111101 ,
b111111101 ;
1+
#944
0+
#948
b1110111 1
b1110111 4
b1110111 2
1+
#952
0+
#956
b1111000 1
b1111000 4
b1111000 2
1+
#960
0+
#964
1"
0!
b111111110 ,
b111111110 ;
b1111001 1
b1111001 4
b1111001 2
1+
#968
0+
#972
b1111010 1
b1111010 4
b1111010 2
1+
#976
0+
#980
b1111011 1
b1111011 4
b1111011 2
1+
#984
0+
#988
1!
b1111100 1
b1111100 4
b1111100 2
b111111111 ,
b111111111 ;
1+
#992
0+
#996
b1111101 1
b1111101 4
b1111101 2
1+
#1000
0+
#1004
b1111110 1
b1111110 4
b1111110 2
1+
#1008
0+
#1012
b1111111 1
b1111111 4
b1111111 2
1+
#1016
0+
#1020
b10000000 1
b10000000 4
b10000000 2
1+
#1024
0+
#1028
x'
x%
x(
x#
x*
x)
x$
x"
x!
b0xxxxxxxxx ,
b0xxxxxxxxx ;
b10000001 1
b10000001 4
b10000001 2
b1 5
13
1+
#1032
0+
#1036
x&
b10000010 1
b10000010 4
b10000010 2
bx ,
bx ;
1+
#1040
0+
#1044
b10000011 1
b10000011 4
b10000011 2
1+
#1048
0+
#1052
b10000100 1
b10000100 4
b10000100 2
1+
#1056
0+
#1060
b10000101 1
b10000101 4
b10000101 2
1+
#1064
0+
#1068
b10000110 1
b10000110 4
b10000110 2
1+
#1072
0+
#1076
b10000111 1
b10000111 4
b10000111 2
1+
#1080
0+
#1084
b10001000 1
b10001000 4
b10001000 2
1+
#1088
0+
#1092
b10001001 1
b10001001 4
b10001001 2
1+
#1096
0+
#1100
b10001010 1
b10001010 4
b10001010 2
1+
#1104
0+
#1108
b10001011 1
b10001011 4
b10001011 2
1+
#1112
0+
#1116
b10001100 1
b10001100 4
b10001100 2
1+
#1120
0+
#1124
b10001101 1
b10001101 4
b10001101 2
1+
#1128
0+
#1132
b10001110 1
b10001110 4
b10001110 2
1+
#1136
0+
#1140
b10001111 1
b10001111 4
b10001111 2
1+
#1144
0+
#1148
b10010000 1
b10010000 4
b10010000 2
1+
#1152
0+
#1156
b10010001 1
b10010001 4
b10010001 2
1+
#1160
0+
#1164
b10010010 1
b10010010 4
b10010010 2
1+
#1168
0+
#1172
b10010011 1
b10010011 4
b10010011 2
1+
#1176
0+
#1180
b10010100 1
b10010100 4
b10010100 2
1+
#1184
0+
#1188
b10010101 1
b10010101 4
b10010101 2
1+
#1192
0+
#1196
b10010110 1
b10010110 4
b10010110 2
1+
#1200
0+
#1204
b10010111 1
b10010111 4
b10010111 2
1+
#1208
0+
#1212
b10011000 1
b10011000 4
b10011000 2
1+
#1216
0+
#1220
b10011001 1
b10011001 4
b10011001 2
1+
#1224
0+
#1228
b10011010 1
b10011010 4
b10011010 2
1+
#1232
0+
#1236
b10011011 1
b10011011 4
b10011011 2
1+
#1240
0+
#1244
b10011100 1
b10011100 4
b10011100 2
1+
#1248
0+
#1252
b10011101 1
b10011101 4
b10011101 2
1+
#1256
0+
#1260
b10011110 1
b10011110 4
b10011110 2
1+
#1264
0+
#1268
b10011111 1
b10011111 4
b10011111 2
1+
#1272
0+
#1276
b10100000 1
b10100000 4
b10100000 2
1+
#1280
0+
#1284
b10100001 1
b10100001 4
b10100001 2
1+
#1288
0+
#1292
b10100010 1
b10100010 4
b10100010 2
1+
#1296
0+
#1300
b10100011 1
b10100011 4
b10100011 2
1+
#1304
0+
#1308
b10100100 1
b10100100 4
b10100100 2
1+
#1312
0+
#1316
b10100101 1
b10100101 4
b10100101 2
1+
#1320
0+
#1324
b10100110 1
b10100110 4
b10100110 2
1+
#1328
0+
#1332
b10100111 1
b10100111 4
b10100111 2
1+
#1336
0+
#1340
b10101000 1
b10101000 4
b10101000 2
1+
#1344
0+
#1348
b10101001 1
b10101001 4
b10101001 2
1+
#1352
0+
#1356
b10101010 1
b10101010 4
b10101010 2
1+
#1360
0+
#1364
b10101011 1
b10101011 4
b10101011 2
1+
#1368
0+
#1372
b10101100 1
b10101100 4
b10101100 2
1+
#1376
0+
#1380
b10101101 1
b10101101 4
b10101101 2
1+
#1384
0+
#1388
b10101110 1
b10101110 4
b10101110 2
1+
#1392
0+
#1396
b10101111 1
b10101111 4
b10101111 2
1+
#1400
0+
#1404
b10110000 1
b10110000 4
b10110000 2
1+
#1408
0+
#1412
b10110001 1
b10110001 4
b10110001 2
1+
#1416
0+
#1420
b10110010 1
b10110010 4
b10110010 2
1+
#1424
0+
#1428
b10110011 1
b10110011 4
b10110011 2
1+
#1432
0+
#1436
b10110100 1
b10110100 4
b10110100 2
1+
#1440
0+
#1444
b10110101 1
b10110101 4
b10110101 2
1+
#1448
0+
#1452
b10110110 1
b10110110 4
b10110110 2
1+
#1456
0+
#1460
b10110111 1
b10110111 4
b10110111 2
1+
#1464
0+
#1468
b10111000 1
b10111000 4
b10111000 2
1+
#1472
0+
#1476
b10111001 1
b10111001 4
b10111001 2
1+
#1480
0+
#1484
b10111010 1
b10111010 4
b10111010 2
1+
#1488
0+
#1492
b10111011 1
b10111011 4
b10111011 2
1+
#1496
0+
#1500
b10111100 1
b10111100 4
b10111100 2
1+
#1504
0+
#1508
b10111101 1
b10111101 4
b10111101 2
1+
#1512
0+
#1516
b10111110 1
b10111110 4
b10111110 2
1+
#1520
0+
#1524
b10111111 1
b10111111 4
b10111111 2
1+
#1528
0+
#1532
b11000000 1
b11000000 4
b11000000 2
1+
#1536
0+
#1540
b11000001 1
b11000001 4
b11000001 2
1+
#1544
0+
#1548
b11000010 1
b11000010 4
b11000010 2
1+
#1552
0+
#1556
b11000011 1
b11000011 4
b11000011 2
1+
#1560
0+
#1564
b11000100 1
b11000100 4
b11000100 2
1+
#1568
0+
#1572
b11000101 1
b11000101 4
b11000101 2
1+
#1576
0+
#1580
b11000110 1
b11000110 4
b11000110 2
1+
#1584
0+
#1588
b11000111 1
b11000111 4
b11000111 2
1+
#1592
0+
#1596
b11001000 1
b11001000 4
b11001000 2
1+
#1600
0+
#1604
b11001001 1
b11001001 4
b11001001 2
1+
#1608
0+
#1612
b11001010 1
b11001010 4
b11001010 2
1+
#1616
0+
#1620
b11001011 1
b11001011 4
b11001011 2
1+
#1624
0+
#1628
b11001100 1
b11001100 4
b11001100 2
1+
#1632
0+
#1636
b11001101 1
b11001101 4
b11001101 2
1+
#1640
0+
#1644
b11001110 1
b11001110 4
b11001110 2
1+
#1648
0+
#1652
b11001111 1
b11001111 4
b11001111 2
1+
#1656
0+
#1660
b11010000 1
b11010000 4
b11010000 2
1+
#1664
0+
#1668
b11010001 1
b11010001 4
b11010001 2
1+
#1672
0+
#1676
b11010010 1
b11010010 4
b11010010 2
1+
#1680
0+
#1684
b11010011 1
b11010011 4
b11010011 2
1+
#1688
0+
#1692
b11010100 1
b11010100 4
b11010100 2
1+
#1696
0+
#1700
b11010101 1
b11010101 4
b11010101 2
1+
#1704
0+
#1708
b11010110 1
b11010110 4
b11010110 2
1+
#1712
0+
#1716
b11010111 1
b11010111 4
b11010111 2
1+
#1720
0+
#1724
b11011000 1
b11011000 4
b11011000 2
1+
#1728
0+
#1732
b11011001 1
b11011001 4
b11011001 2
1+
#1736
0+
#1740
b11011010 1
b11011010 4
b11011010 2
1+
#1744
0+
#1748
b11011011 1
b11011011 4
b11011011 2
1+
#1752
0+
#1756
b11011100 1
b11011100 4
b11011100 2
1+
#1760
0+
#1764
b11011101 1
b11011101 4
b11011101 2
1+
#1768
0+
#1772
b11011110 1
b11011110 4
b11011110 2
1+
#1776
0+
#1780
b11011111 1
b11011111 4
b11011111 2
1+
#1784
0+
#1788
b11100000 1
b11100000 4
b11100000 2
1+
#1792
0+
#1796
b11100001 1
b11100001 4
b11100001 2
1+
#1800
0+
#1804
b11100010 1
b11100010 4
b11100010 2
1+
#1808
0+
#1812
b11100011 1
b11100011 4
b11100011 2
1+
#1816
0+
#1820
b11100100 1
b11100100 4
b11100100 2
1+
#1824
0+
#1828
b11100101 1
b11100101 4
b11100101 2
1+
#1832
0+
#1836
b11100110 1
b11100110 4
b11100110 2
1+
#1840
0+
#1844
b11100111 1
b11100111 4
b11100111 2
1+
#1848
0+
#1852
b11101000 1
b11101000 4
b11101000 2
1+
#1856
0+
#1860
b11101001 1
b11101001 4
b11101001 2
1+
#1864
0+
#1868
b11101010 1
b11101010 4
b11101010 2
1+
#1872
0+
#1876
b11101011 1
b11101011 4
b11101011 2
1+
#1880
0+
#1884
b11101100 1
b11101100 4
b11101100 2
1+
#1888
0+
#1892
b11101101 1
b11101101 4
b11101101 2
1+
#1896
0+
#1900
b11101110 1
b11101110 4
b11101110 2
1+
#1904
0+
#1908
b11101111 1
b11101111 4
b11101111 2
1+
#1912
0+
#1916
b11110000 1
b11110000 4
b11110000 2
1+
#1920
0+
#1924
b11110001 1
b11110001 4
b11110001 2
1+
#1928
0+
#1932
b11110010 1
b11110010 4
b11110010 2
1+
#1936
0+
#1940
b11110011 1
b11110011 4
b11110011 2
1+
#1944
0+
#1948
b11110100 1
b11110100 4
b11110100 2
1+
#1952
0+
#1956
b11110101 1
b11110101 4
b11110101 2
1+
#1960
0+
#1964
b11110110 1
b11110110 4
b11110110 2
1+
#1968
0+
#1972
b11110111 1
b11110111 4
b11110111 2
1+
#1976
0+
#1980
b11111000 1
b11111000 4
b11111000 2
1+
#1984
0+
#1988
b11111001 1
b11111001 4
b11111001 2
1+
#1992
0+
#1996
b11111010 1
b11111010 4
b11111010 2
1+
#2000
0+
#2004
b11111011 1
b11111011 4
b11111011 2
1+
#2008
0+
#2012
b11111100 1
b11111100 4
b11111100 2
1+
#2016
0+
#2020
b11111101 1
b11111101 4
b11111101 2
1+
#2024
0+
#2028
b11111110 1
b11111110 4
b11111110 2
1+
#2032
0+
#2036
b11111111 1
b11111111 4
b11111111 2
1+
#2040
0+
#2044
b0 1
b0 4
b100000000 2
1+
#2048
0+
#2052
0&
1'
0%
0(
0#
0*
0)
0$
0"
0!
b100000000 ,
b100000000 ;
b1 1
b1 4
b100000001 2
b0 5
03
1+
#2056
0+
#2060
1"
1!
b10 1
b10 4
b100000010 2
b100000011 ,
b100000011 ;
1+
#2064
0+
#2068
1$
0!
b100000110 ,
b100000110 ;
b11 1
b11 4
b100000011 2
1+
#2072
0+
#2076
1)
0$
0"
1!
b100 1
b100 4
b100000100 2
b100001001 ,
b100001001 ;
1+
#2080
0+
#2084
1$
0!
b100001100 ,
b100001100 ;
b101 1
b101 4
b100000101 2
1+
#2088
0+
#2092
1"
1!
b110 1
b110 4
b100000110 2
b100001111 ,
b100001111 ;
1+
#2096
0+
#2100
1*
0)
0$
0!
b100010010 ,
b100010010 ;
b111 1
b111 4
b100000111 2
1+
#2104
0+
#2108
1$
0"
1!
b1000 1
b1000 4
b100001000 2
b100010101 ,
b100010101 ;
1+
#2112
0+
#2116
1)
0$
b100011001 ,
b100011001 ;
b1001 1
b1001 4
b100001001 2
1+
#2120
0+
#2124
1$
0!
b1010 1
b1010 4
b100001010 2
b100011100 ,
b100011100 ;
1+
#2128
0+
#2132
1"
1!
b100011111 ,
b100011111 ;
b1011 1
b1011 4
b100001011 2
1+
#2136
0+
#2140
1#
0*
0)
0$
0!
b1100 1
b1100 4
b100001100 2
b100100010 ,
b100100010 ;
1+
#2144
0+
#2148
1$
0"
1!
b100100101 ,
b100100101 ;
b1101 1
b1101 4
b100001101 2
1+
#2152
0+
#2156
1)
0$
0!
b1110 1
b1110 4
b100001110 2
b100101000 ,
b100101000 ;
1+
#2160
0+
#2164
1"
1!
b100101011 ,
b100101011 ;
b1111 1
b1111 4
b100001111 2
1+
#2168
0+
#2172
1$
0!
b10000 1
b10000 4
b100010000 2
b100101110 ,
b100101110 ;
1+
#2176
0+
#2180
1*
0)
0$
0"
1!
b100110001 ,
b100110001 ;
b10001 1
b10001 4
b100010001 2
1+
#2184
0+
#2188
1$
0!
b10010 1
b10010 4
b100010010 2
b100110100 ,
b100110100 ;
1+
#2192
0+
#2196
1"
1!
b100110111 ,
b100110111 ;
b10011 1
b10011 4
b100010011 2
1+
#2200
0+
#2204
1)
0$
b10100 1
b10100 4
b100010100 2
b100111011 ,
b100111011 ;
1+
#2208
0+
#2212
1$
0!
b100111110 ,
b100111110 ;
b10101 1
b10101 4
b100010101 2
1+
#2216
0+
#2220
1(
0#
0*
0)
0$
0"
1!
b10110 1
b10110 4
b100010110 2
b101000001 ,
b101000001 ;
1+
#2224
0+
#2228
1$
0!
b101000100 ,
b101000100 ;
b10111 1
b10111 4
b100010111 2
1+
#2232
0+
#2236
1"
1!
b11000 1
b11000 4
b100011000 2
b101000111 ,
b101000111 ;
1+
#2240
0+
#2244
1)
0$
0!
b101001010 ,
b101001010 ;
b11001 1
b11001 4
b100011001 2
1+
#2248
0+
#2252
1$
0"
1!
b11010 1
b11010 4
b100011010 2
b101001101 ,
b101001101 ;
1+
#2256
0+
#2260
1*
0)
0$
0!
b101010000 ,
b101010000 ;
b11011 1
b11011 4
b100011011 2
1+
#2264
0+
#2268
1"
1!
b11100 1
b11100 4
b100011100 2
b101010011 ,
b101010011 ;
1+
#2272
0+
#2276
1$
0!
b101010110 ,
b101010110 ;
b11101 1
b11101 4
b100011101 2
1+
#2280
0+
#2284
1)
0$
0"
1!
b11110 1
b11110 4
b100011110 2
b101011001 ,
b101011001 ;
1+
#2288
0+
#2292
1"
b101011011 ,
b101011011 ;
b11111 1
b11111 4
b100011111 2
1+
#2296
0+
#2300
1$
0!
b100000 1
b100000 4
b100100000 2
b101011110 ,
b101011110 ;
1+
#2304
0+
#2308
1#
0*
0)
0$
0"
1!
b101100001 ,
b101100001 ;
b100001 1
b100001 4
b100100001 2
1+
#2312
0+
#2316
1$
0!
b100010 1
b100010 4
b100100010 2
b101100100 ,
b101100100 ;
1+
#2320
0+
#2324
1"
1!
b101100111 ,
b101100111 ;
b100011 1
b100011 4
b100100011 2
1+
#2328
0+
#2332
1)
0$
0!
b100100 1
b100100 4
b100100100 2
b101101010 ,
b101101010 ;
1+
#2336
0+
#2340
1$
0"
1!
b101101101 ,
b101101101 ;
b100101 1
b100101 4
b100100101 2
1+
#2344
0+
#2348
1*
0)
0$
0!
b100110 1
b100110 4
b100100110 2
b101110000 ,
b101110000 ;
1+
#2352
0+
#2356
1"
b101110010 ,
b101110010 ;
b100111 1
b100111 4
b100100111 2
1+
#2360
0+
#2364
1$
0"
1!
b101000 1
b101000 4
b100101000 2
b101110101 ,
b101110101 ;
1+
#2368
0+
#2372
1)
0$
0!
b101111000 ,
b101111000 ;
b101001 1
b101001 4
b100101001 2
1+
#2376
0+
#2380
1"
1!
b101010 1
b101010 4
b100101010 2
b101111011 ,
b101111011 ;
1+
#2384
0+
#2388
1$
0"
b101111101 ,
b101111101 ;
b101011 1
b101011 4
b100101011 2
1+
#2392
0+
#2396
1%
0(
0#
0*
0)
0$
0!
b101100 1
b101100 4
b100101100 2
b110000000 ,
b110000000 ;
1+
#2400
0+
#2404
1"
1!
b110000011 ,
b110000011 ;
b101101 1
b101101 4
b100101101 2
1+
#2408
0+
#2412
1$
0!
b101110 1
b101110 4
b100101110 2
b110000110 ,
b110000110 ;
1+
#2416
0+
#2420
1)
0$
0"
b110001000 ,
b110001000 ;
b101111 1
b101111 4
b100101111 2
1+
#2424
0+
#2428
1"
1!
b110000 1
b110000 4
b100110000 2
b110001011 ,
b110001011 ;
1+
#2432
0+
#2436
1$
0"
b110001101 ,
b110001101 ;
b110001 1
b110001 4
b100110001 2
1+
