examples/mp3/sine.vcd
$date
	Tue Mar 11 13:32:03 2025
$end
$version
	Icarus Verilog
$end
$timescale
	10ns
$end
$scope module sine_tb $end
$var wire 1 ! _9b $end
$var wire 1 " _6a $end
$var wire 1 # _5a $end
$var wire 1 $ _4a $end
$var wire 1 % _49a $end
$var wire 1 & _48b $end
$var wire 1 ' _45a $end
$var wire 1 ( _3b $end
$var wire 1 ) _2a $end
$var wire 1 * _0a $end
$var reg 1 + clk $end
$scope module u0 $end
$var wire 1 + clk $end
$var wire 10 , data [9:0] $end
$var wire 1 ! _9b $end
$var wire 1 " _6a $end
$var wire 1 # _5a $end
$var wire 1 $ _4a $end
$var wire 1 % _49a $end
$var wire 1 & _48b $end
$var wire 1 ' _45a $end
$var wire 1 ( _3b $end
$var wire 1 ) _2a $end
$var wire 1 * _0a $end
$var parameter 2 - FALL $end
$var parameter 2 . PEAK $end
$var parameter 2 / RISE $end
$var parameter 2 0 TROUGH $end
$var reg 7 1 address [6:0] $end
$var reg 9 2 count [8:0] $end
$var reg 2 3 current_state [1:0] $end
$scope module u1 $end
$var wire 1 + clk $end
$var wire 7 4 read_address [6:0] $end
$var wire 2 5 read_state [1:0] $end
$var parameter 2 6 FALL $end
$var parameter 64 7 INIT_FILE $end
$var parameter 2 8 PEAK $end
$var parameter 2 9 RISE $end
$var parameter 2 : TROUGH $end
$var reg 10 ; read_data [9:0] $end
$upscope $end
$upscope $end
$upscope $end
$enddefinitions $end
$comment Show the parameter values. $end
$dumpall
b10 :
b11 9
b0 8
b111001101101001011011100110010100101110011101000111100001110100 7
b1 6
b10 0
b11 /
b0 .
b1 -
$end
#0
$dumpvars
bx ;
b0 5
b0 4
b0 3
b0 2
b0 1
bx ,
0+
x*
x)
x(
x'
x&
x%
x$
x#
x"
x!
$end
#4
1&
0'
0%
0(
0#
0*
0)
0$
0"
0!
b1000000000 ,
b1000000000 ;
b1 1
b1 4
b1 2
1+
#8
0+
#12
1"
1!
b10 1
b10 4
b10 2
b1000000011 ,
b1000000011 ;
1+
#16
0+
#20
1$
0!
b1000000110 ,
b1000000110 ;
b11 1
b11 4
b11 2
1+
#24
0+
#28
1)
0$
0"
1!
b100 1
b100 4
b100 2
b1000001001 ,
b1000001001 ;
1+
#32
0+
#36
1$
0!
b1000001100 ,
b1000001100 ;
b101 1
b101 4
b101 2
1+
#40
0+
#44
1"
1!
b110 1
b110 4
b110 2
b1000001111 ,
b1000001111 ;
1+
#48
0+
#52
1*
0)
0$
0!
b1000010010 ,
b1000010010 ;
b111 1
b111 4
b111 2
1+
#56
0+
#60
1$
0"
1!
b1000 1
b1000 4
b1000 2
b1000010101 ,
b1000010101 ;
1+
#64
0+
#68
1)
0$
b1000011001 ,
b1000011001 ;
b1001 1
b1001 4
b1001 2
1+
#72
0+
#76
1$
0!
b1010 1
b1010 4
b1010 2
b1000011100 ,
b1000011100 ;
1+
#80
0+
#84
1"
1!
b1000011111 ,
b1000011111 ;
b1011 1
b1011 4
b1011 2
1+
#88
0+
#92
1#
0*
0)
0$
0!
b1100 1
b1100 4
b1100 2
b1000100010 ,
b1000100010 ;
1+
#96
0+
#100
1$
0"
1!
b1000100101 ,
b1000100101 ;
b1101 1
b1101 4
b1101 2
1+
#104
0+
#108
1)
0$
0!
b1110 1
b1110 4
b1110 2
b1000101000 ,
b1000101000 ;
1+
#112
0+
#116
1"
1!
b1000101011 ,
b1000101011 ;
b1111 1
b1111 4
b1111 2
1+
#120
0+
#124
1$
0!
b10000 1
b10000 4
b10000 2
b1000101110 ,
b1000101110 ;
1+
#128
0+
#132
1*
0)
0$
0"
1!
b1000110001 ,
b1000110001 ;
b10001 1
b10001 4
b10001 2
1+
#136
0+
#140
1$
0!
b10010 1
b10010 4
b10010 2
b1000110100 ,
b1000110100 ;
1+
#144
0+
#148
1"
1!
b1000110111 ,
b1000110111 ;
b10011 1
b10011 4
b10011 2
1+
#152
0+
#156
1)
0$
b10100 1
b10100 4
b10100 2
b1000111011 ,
b1000111011 ;
1+
#160
0+
#164
1$
0!
b1000111110 ,
b1000111110 ;
b10101 1
b10101 4
b10101 2
1+
#168
0+
#172
1(
0#
0*
0)
0$
0"
1!
b10110 1
b10110 4
b10110 2
b1001000001 ,
b1001000001 ;
1+
#176
0+
#180
1$
0!
b1001000100 ,
b1001000100 ;
b10111 1
b10111 4
b10111 2
1+
#184
0+
#188
1"
1!
b11000 1
b11000 4
b11000 2
b1001000111 ,
b1001000111 ;
1+
#192
0+
#196
1)
0$
0!
b1001001010 ,
b1001001010 ;
b11001 1
b11001 4
b11001 2
1+
#200
0+
#204
1$
0"
1!
b11010 1
b11010 4
b11010 2
b1001001101 ,
b1001001101 ;
1+
#208
0+
#212
1*
0)
0$
0!
b1001010000 ,
b1001010000 ;
b11011 1
b11011 4
b11011 2
1+
#216
0+
#220
1"
1!
b11100 1
b11100 4
b11100 2
b1001010011 ,
b1001010011 ;
1+
#224
0+
#228
1$
0!
b1001010110 ,
b1001010110 ;
b11101 1
b11101 4
b11101 2
1+
#232
0+
#236
1)
0$
0"
1!
b11110 1
b11110 4
b11110 2
b1001011001 ,
b1001011001 ;
1+
#240
0+
#244
1"
b1001011011 ,
b1001011011 ;
b11111 1
b11111 4
b11111 2
1+
#248
0+
#252
1$
0!
b100000 1
b100000 4
b100000 2
b1001011110 ,
b1001011110 ;
1+
#256
0+
#260
1#
0*
0)
0$
0"
1!
b1001100001 ,
b1001100001 ;
b100001 1
b100001 4
b100001 2
1+
#264
0+
#268
1$
0!
b100010 1
b100010 4
b100010 2
b1001100100 ,
b1001100100 ;
1+
#272
0+
#276
1"
1!
b1001100111 ,
b1001100111 ;
b100011 1
b100011 4
b100011 2
1+
#280
0+
#284
1)
0$
0!
b100100 1
b100100 4
b100100 2
b1001101010 ,
b1001101010 ;
1+
#288
0+
#292
1$
0"
1!
b1001101101 ,
b1001101101 ;
b100101 1
b100101 4
b100101 2
1+
#296
0+
#300
1*
0)
0$
0!
b100110 1
b100110 4
b100110 2
b1001110000 ,
b1001110000 ;
1+
#304
0+
#308
1"
b1001110010 ,
b1001110010 ;
b100111 1
b100111 4
b100111 2
1+
#312
0+
#316
1$
0"
1!
b101000 1
b101000 4
b101000 2
b1001110101 ,
b1001110101 ;
1+
#320
0+
#324
1)
0$
0!
b1001111000 ,
b1001111000 ;
b101001 1
b101001 4
b101001 2
1+
#328
0+
#332
1"
1!
b101010 1
b101010 4
b101010 2
b1001111011 ,
b1001111011 ;
1+
#336
0+
#340
1$
0"
b1001111101 ,
b1001111101 ;
b101011 1
b101011 4
b101011 2
1+
#344
0+
#348
1%
0(
0#
0*
0)
0$
0!
b101100 1
b101100 4
b101100 2
b1010000000 ,
b1010000000 ;
1+
#352
0+
#356
1"
1!
b1010000011 ,
b1010000011 ;
b101101 1
b101101 4
b101101 2
1+
#360
0+
#364
1$
0!
b101110 1
b101110 4
b101110 2
b1010000110 ,
b1010000110 ;
1+
#368
0+
#372
1)
0$
0"
b1010001000 ,
b1010001000 ;
b101111 1
b101111 4
b101111 2
1+
#376
0+
#380
1"
1!
b110000 1
b110000 4
b110000 2
b1010001011 ,
b1010001011 ;
1+
#384
0+
#388
1$
0"
b1010001101 ,
b1010001101 ;
b110001 1
b110001 4
b110001 2
1+
#392
0+
#396
1*
0)
0$
0!
b110010 1
b110010 4
b110010 2
b1010010000 ,
b1010010000 ;
1+
#400
0+
#404
1"
1!
b1010010011 ,
b1010010011 ;
b110011 1
b110011 4
b110011 2
1+
#408
0+
#412
1$
0"
b110100 1
b110100 4
b110100 2
b1010010101 ,
b1010010101 ;
1+
#416
0+
#420
1)
0$
0!
b1010011000 ,
b1010011000 ;
b110101 1
b110101 4
b110101 2
1+
#424
0+
#428
1"
b110110 1
b110110 4
b110110 2
b1010011010 ,
b1010011010 ;
1+
#432
0+
#436
1$
0"
1!
b1010011101 ,
b1010011101 ;
b110111 1
b110111 4
b110111 2
1+
#440
0+
#444
1"
b111000 1
b111000 4
b111000 2
b1010011111 ,
b1010011111 ;
1+
#448
0+
#452
1#
0*
0)
0$
0!
b1010100010 ,
b1010100010 ;
b111001 1
b111001 4
b111001 2
1+
#456
0+
#460
1$
0"
b111010 1
b111010 4
b111010 2
b1010100100 ,
b1010100100 ;
1+
#464
0+
#468
1"
b1010100110 ,
b1010100110 ;
b111011 1
b111011 4
b111011 2
1+
#472
0+
#476
1)
0$
0"
1!
b111100 1
b111100 4
b111100 2
b1010101001 ,
b1010101001 ;
1+
#480
0+
#484
1"
b1010101011 ,
b1010101011 ;
b111101 1
b111101 4
b111101 2
1+
#488
0+
#492
1$
0"
b111110 1
b111110 4
b111110 2
b1010101101 ,
b1010101101 ;
1+
#496
0+
#500
1*
0)
0$
0!
b1010110000 ,
b1010110000 ;
b111111 1
b111111 4
b111111 2
1+
#504
0+
#508
1"
b1000000 1
b1000000 4
b1000000 2
b1010110010 ,
b1010110010 ;
1+
#512
0+
#516
1$
0"
b1010110100 ,
b1010110100 ;
b1000001 1
b1000001 4
b1000001 2
1+
#520
0+
#524
1"
b1000010 1
b1000010 4
b1000010 2
b1010110110 ,
b1010110110 ;
1+
#528
0+
#532
1)
0$
0"
1!
b1010111001 ,
b1010111001 ;
b1000011 1
b1000011 4
b1000011 2
1+
#536
0+
#540
1"
b1000100 1
b1000100 4
b1000100 2
b1010111011 ,
b1010111011 ;
1+
#544
0+
#548
1$
0"
b1010111101 ,
b1010111101 ;
b1000101 1
b1000101 4
b1000101 2
1+
#552
0+
#556
1"
b1000110 1
b1000110 4
b1000110 2
b1010111111 ,
b1010111111 ;
1+
#560
0+
#564
1(
0#
0*
0)
0$
0"
b1011000001 ,
b1011000001 ;
b1000111 1
b1000111 4
b1000111 2
1+
#568
0+
#572
1"
b1001000 1
b1001000 4
b1001000 2
b1011000011 ,
b1011000011 ;
1+
#576
0+
#580
1$
0"
b1011000101 ,
b1011000101 ;
b1001001 1
b1001001 4
b1001001 2
1+
#584
0+
#588
1"
b1001010 1
b1001010 4
b1001010 2
b1011000111 ,
b1011000111 ;
1+
#592
0+
#596
1)
0$
0"
b1011001001 ,
b1011001001 ;
b1001011 1
b1001011 4
b1001011 2
1+
#600
0+
#604
1"
b1001100 1
b1001100 4
b1001100 2
b1011001011 ,
b1011001011 ;
1+
#608
0+
#612
1$
0"
b1011001101 ,
b1011001101 ;
b1001101 1
b1001101 4
b1001101 2
1+
#616
0+
#620
1"
b1001110 1
b1001110 4
b1001110 2
b1011001111 ,
b1011001111 ;
1+
#624
0+
#628
1*
0)
0$
0"
0!
b1011010000 ,
b1011010000 ;
b1001111 1
b1001111 4
b1001111 2
1+
#632
0+
#636
1"
b1010000 1
b1010000 4
b1010000 2
b1011010010 ,
b1011010010 ;
1+
#640
0+
#644
1$
0"
b1011010100 ,
b1011010100 ;
b1010001 1
b1010001 4
b1010001 2
1+
#648
0+
#652
1"
b1010010 1
b1010010 4
b1010010 2
b1011010110 ,
b1011010110 ;
1+
#656
0+
#660
1!
b1011010111 ,
b1011010111 ;
b1010011 1
b1010011 4
b1010011 2
1+
#664
0+
#668
1)
0$
0"
b1010100 1
b1010100 4
b1010100 2
b1011011001 ,
b1011011001 ;
1+
#672
0+
#676
1"
b1011011011 ,
b1011011011 ;
b1010101 1
b1010101 4
b1010101 2
1+
#680
0+
#684
1$
0"
0!
b1010110 1
b1010110 4
b1010110 2
b1011011100 ,
b1011011100 ;
1+
#688
0+
#692
1"
b1011011110 ,
b1011011110 ;
b1010111 1
b1010111 4
b1010111 2
1+
#696
0+
#700
1!
b1011000 1
b1011000 4
b1011000 2
b1011011111 ,
b1011011111 ;
1+
#704
0+
#708
1#
0*
0)
0$
0"
b1011100001 ,
b1011100001 ;
b1011001 1
b1011001 4
b1011001 2
1+
#712
0+
#716
1"
0!
b1011010 1
b1011010 4
b1011010 2
b1011100010 ,
b1011100010 ;
1+
#720
0+
#724
1$
0"
b1011100100 ,
b1011100100 ;
b1011011 1
b1011011 4
b1011011 2
1+
#728
0+
#732
1!
b1011100 1
b1011100 4
b1011100 2
b1011100101 ,
b1011100101 ;
1+
#736
0+
#740
1"
0!
b1011100110 ,
b1011100110 ;
b1011101 1
b1011101 4
b1011101 2
1+
#744
0+
#748
1)
0$
0"
b1011110 1
b1011110 4
b1011110 2
b1011101000 ,
b1011101000 ;
1+
#752
0+
#756
1!
b1011101001 ,
b1011101001 ;
b1011111 1
b1011111 4
b1011111 2
1+
#760
0+
#764
1"
0!
b1100000 1
b1100000 4
b1100000 2
b1011101010 ,
b1011101010 ;
1+
#768
0+
#772
1$
0"
b1011101100 ,
b1011101100 ;
b1100001 1
b1100001 4
b1100001 2
1+
#776
0+
#780
1!
b1100010 1
b1100010 4
b1100010 2
b1011101101 ,
b1011101101 ;
1+
#784
0+
#788
1"
0!
b1011101110 ,
b1011101110 ;
b1100011 1
b1100011 4
b1100011 2
1+
#792
0+
#796
1!
b1100100 1
b1100100 4
b1100100 2
b1011101111 ,
b1011101111 ;
1+
#800
0+
#804
1*
0)
0$
0"
0!
b1011110000 ,
b1011110000 ;
b1100101 1
b1100101 4
b1100101 2
1+
#808
0+
#812
1!
b1100110 1
b1100110 4
b1100110 2
b1011110001 ,
b1011110001 ;
1+
#816
0+
#820
1"
0!
b1011110010 ,
b1011110010 ;
b1100111 1
b1100111 4
b1100111 2
1+
#824
0+
#828
1!
b1101000 1
b1101000 4
b1101000 2
b1011110011 ,
b1011110011 ;
1+
#832
0+
#836
1$
0"
0!
b1011110100 ,
b1011110100 ;
b1101001 1
b1101001 4
b1101001 2
1+
#840
0+
#844
1!
b1101010 1
b1101010 4
b1101010 2
b1011110101 ,
b1011110101 ;
1+
#848
0+
#852
1"
0!
b1011110110 ,
b1011110110 ;
b1101011 1
b1101011 4
b1101011 2
1+
#856
0+
#860
1!
b1101100 1
b1101100 4
b1101100 2
b1011110111 ,
b1011110111 ;
1+
#864
0+
#868
b1101101 1
b1101101 4
b1101101 2
1+
#872
0+
#876
1)
0$
0"
0!
b1101110 1
b1101110 4
b1101110 2
b1011111000 ,
b1011111000 ;
1+
#880
0+
#884
1!
b1011111001 ,
b1011111001 ;
b1101111 1
b1101111 4
b1101111 2
1+
#888
0+
#892
b1110000 1
b1110000 4
b1110000 2
1+
#896
0+
#900
1"
0!
b1011111010 ,
b1011111010 ;
b1110001 1
b1110001 4
b1110001 2
1+
#904
0+
#908
1!
b1110010 1
b1110010 4
b1110010 2
b1011111011 ,
b1011111011 ;
1+
#912
0+
#916
b1110011 1
b1110011 4
b1110011 2
1+
#920
0+
#924
1$
0"
0!
b1110100 1
b1110100 4
b1110100 2
b1011111100 ,
b1011111100 ;
1+
#928
0+
#932
b1110101 1
b1110101 4
b1110101 2
1+
#936
0+
#940
1!
b1110110 1
b1110110 4
b1110110 2
b1011111101 ,
b1011111101 ;
1+
#944
0+
#948
b1110111 1
b1110111 4
b1110111 2
1+
#952
0+
#956
b1111000 1
b1111000 4
b1111000 2
1+
#960
0+
#964
1"
0!
b1011111110 ,
b1011111110 ;
b1111001 1
b1111001 4
b1111001 2
1+
#968
0+
#972
b1111010 1
b1111010 4
b1111010 2
1+
#976
0+
#980
b1111011 1
b1111011 4
b1111011 2
1+
#984
0+
#988
1!
b1111100 1
b1111100 4
b1111100 2
b1011111111 ,
b1011111111 ;
1+
#992
0+
#996
b1111101 1
b1111101 4
b1111101 2
1+
#1000
0+
#1004
b1111110 1
b1111110 4
b1111110 2
1+
#1008
0+
#1012
b1111111 1
b1111111 4
b1111111 2
1+
#1016
0+
#1020
b0 1
b0 4
b10000000 2
1+
#1024
0+
#1028
b1 1
b1 4
b10000001 2
b1 3
b1 5
1+
#1032
0+
#1036
b10 1
b10 4
b10000010 2
1+
#1040
0+
#1044
b11 1
b11 4
b10000011 2
1+
#1048
0+
#1052
b100 1
b100 4
b10000100 2
1+
#1056
0+
#1060
b101 1
b101 4
b10000101 2
1+
#1064
0+
#1068
0!
b110 1
b110 4
b10000110 2
b1011111110 ,
b1011111110 ;
1+
#1072
0+
#1076
b111 1
b111 4
b10000111 2
1+
#1080
0+
#1084
b1000 1
b1000 4
b10001000 2
1+
#1088
0+
#1092
0"
1!
b1011111101 ,
b1011111101 ;
b1001 1
b1001 4
b10001001 2
1+
#1096
0+
#1100
b1010 1
b1010 4
b10001010 2
1+
#1104
0+
#1108
b1011 1
b1011 4
b10001011 2
1+
#1112
0+
#1116
0!
b1100 1
b1100 4
b10001100 2
b1011111100 ,
b1011111100 ;
1+
#1120
0+
#1124
b1101 1
b1101 4
b10001101 2
1+
#1128
0+
#1132
0$
1"
1!
b1110 1
b1110 4
b10001110 2
b1011111011 ,
b1011111011 ;
1+
#1136
0+
#1140
b1111 1
b1111 4
b10001111 2
1+
#1144
0+
#1148
0!
b10000 1
b10000 4
b10010000 2
b1011111010 ,
b1011111010 ;
1+
#1152
0+
#1156
0"
1!
b1011111001 ,
b1011111001 ;
b10001 1
b10001 4
b10010001 2
1+
#1160
0+
#1164
b10010 1
b10010 4
b10010010 2
1+
#1168
0+
#1172
0!
b1011111000 ,
b1011111000 ;
b10011 1
b10011 4
b10010011 2
1+
#1176
0+
#1180
0)
1$
1"
1!
b10100 1
b10100 4
b10010100 2
b1011110111 ,
b1011110111 ;
1+
#1184
0+
#1188
b10101 1
b10101 4
b10010101 2
1+
#1192
0+
#1196
0!
b10110 1
b10110 4
b10010110 2
b1011110110 ,
b1011110110 ;
1+
#1200
0+
#1204
0"
1!
b1011110101 ,
b1011110101 ;
b10111 1
b10111 4
b10010111 2
1+
#1208
0+
#1212
0!
b11000 1
b11000 4
b10011000 2
b1011110100 ,
b1011110100 ;
1+
#1216
0+
#1220
0$
1"
1!
b1011110011 ,
b1011110011 ;
b11001 1
b11001 4
b10011001 2
1+
#1224
0+
#1228
0!
b11010 1
b11010 4
b10011010 2
b1011110010 ,
b1011110010 ;
1+
#1232
0+
#1236
0"
1!
b1011110001 ,
b1011110001 ;
b11011 1
b11011 4
b10011011 2
1+
#1240
0+
#1244
0!
b11100 1
b11100 4
b10011100 2
b1011110000 ,
b1011110000 ;
1+
#1248
0+
#1252
0*
1)
1$
1"
1!
b1011101111 ,
b1011101111 ;
b11101 1
b11101 4
b10011101 2
1+
#1256
0+
#1260
0!
b11110 1
b11110 4
b10011110 2
b1011101110 ,
b1011101110 ;
1+
#1264
0+
#1268
0"
1!
b1011101101 ,
b1011101101 ;
b11111 1
b11111 4
b10011111 2
1+
#1272
0+
#1276
0!
b100000 1
b100000 4
b10100000 2
b1011101100 ,
b1011101100 ;
1+
#1280
0+
#1284
0$
1"
b1011101010 ,
b1011101010 ;
b100001 1
b100001 4
b10100001 2
1+
#1288
0+
#1292
0"
1!
b100010 1
b100010 4
b10100010 2
b1011101001 ,
b1011101001 ;
1+
#1296
0+
#1300
0!
b1011101000 ,
b1011101000 ;
b100011 1
b100011 4
b10100011 2
1+
#1304
0+
#1308
0)
1$
1"
b100100 1
b100100 4
b10100100 2
b1011100110 ,
b1011100110 ;
1+
#1312
0+
#1316
0"
1!
b1011100101 ,
b1011100101 ;
b100101 1
b100101 4
b10100101 2
1+
#1320
0+
#1324
0!
b100110 1
b100110 4
b10100110 2
b1011100100 ,
b1011100100 ;
1+
#1328
0+
#1332
0$
1"
b1011100010 ,
b1011100010 ;
b100111 1
b100111 4
b10100111 2
1+
#1336
0+
#1340
0"
1!
b101000 1
b101000 4
b10101000 2
b1011100001 ,
b1011100001 ;
1+
#1344
0+
#1348
0#
1*
1)
1$
1"
b1011011111 ,
b1011011111 ;
b101001 1
b101001 4
b10101001 2
1+
#1352
0+
#1356
0!
b101010 1
b101010 4
b10101010 2
b1011011110 ,
b1011011110 ;
1+
#1360
0+
#1364
0"
b1011011100 ,
b1011011100 ;
b101011 1
b101011 4
b10101011 2
1+
#1368
0+
#1372
0$
1"
1!
b101100 1
b101100 4
b10101100 2
b1011011011 ,
b1011011011 ;
1+
#1376
0+
#1380
0"
b1011011001 ,
b1011011001 ;
b101101 1
b101101 4
b10101101 2
1+
#1384
0+
#1388
0)
1$
1"
b101110 1
b101110 4
b10101110 2
b1011010111 ,
b1011010111 ;
1+
#1392
0+
#1396
0!
b1011010110 ,
b1011010110 ;
b101111 1
b101111 4
b10101111 2
1+
#1400
0+
#1404
0"
b110000 1
b110000 4
b10110000 2
b1011010100 ,
b1011010100 ;
1+
#1408
0+
#1412
0$
1"
b1011010010 ,
b1011010010 ;
b110001 1
b110001 4
b10110001 2
1+
#1416
0+
#1420
0"
b110010 1
b110010 4
b10110010 2
b1011010000 ,
b1011010000 ;
1+
#1424
0+
#1428
0*
1)
1$
1"
1!
b1011001111 ,
b1011001111 ;
b110011 1
b110011 4
b10110011 2
1+
#1432
0+
#1436
0"
b110100 1
b110100 4
b10110100 2
b1011001101 ,
b1011001101 ;
1+
#1440
0+
#1444
0$
1"
b1011001011 ,
b1011001011 ;
b110101 1
b110101 4
b10110101 2
1+
#1448
0+
#1452
0"
b110110 1
b110110 4
b10110110 2
b1011001001 ,
b1011001001 ;
1+
#1456
0+
#1460
0)
1$
1"
b1011000111 ,
b1011000111 ;
b110111 1
b110111 4
b10110111 2
1+
#1464
0+
#1468
0"
b111000 1
b111000 4
b10111000 2
b1011000101 ,
b1011000101 ;
1+
#1472
0+
#1476
0$
1"
b1011000011 ,
b1011000011 ;
b111001 1
b111001 4
b10111001 2
1+
#1480
0+
#1484
0"
b111010 1
b111010 4
b10111010 2
b1011000001 ,
b1011000001 ;
1+
#1488
0+
#1492
0(
1#
1*
1)
1$
1"
b1010111111 ,
b1010111111 ;
b111011 1
b111011 4
b10111011 2
1+
#1496
0+
#1500
0"
b111100 1
b111100 4
b10111100 2
b1010111101 ,
b1010111101 ;
1+
#1504
0+
#1508
0$
1"
b1010111011 ,
b1010111011 ;
b111101 1
b111101 4
b10111101 2
1+
#1512
0+
#1516
0"
b111110 1
b111110 4
b10111110 2
b1010111001 ,
b1010111001 ;
1+
#1520
0+
#1524
0)
1$
1"
0!
b1010110110 ,
b1010110110 ;
b111111 1
b111111 4
b10111111 2
1+
#1528
0+
#1532
0"
b1000000 1
b1000000 4
b11000000 2
b1010110100 ,
b1010110100 ;
1+
#1536
0+
#1540
0$
1"
b1010110010 ,
b1010110010 ;
b1000001 1
b1000001 4
b11000001 2
1+
#1544
0+
#1548
0"
b1000010 1
b1000010 4
b11000010 2
b1010110000 ,
b1010110000 ;
1+
#1552
0+
#1556
0*
1)
1$
1!
b1010101101 ,
b1010101101 ;
b1000011 1
b1000011 4
b11000011 2
1+
#1560
0+
#1564
0$
1"
b1000100 1
b1000100 4
b11000100 2
b1010101011 ,
b1010101011 ;
1+
#1568
0+
#1572
0"
b1010101001 ,
b1010101001 ;
b1000101 1
b1000101 4
b11000101 2
1+
#1576
0+
#1580
0)
1$
1"
0!
b1000110 1
b1000110 4
b11000110 2
b1010100110 ,
b1010100110 ;
1+
#1584
0+
#1588
0"
b1010100100 ,
b1010100100 ;
b1000111 1
b1000111 4
b11000111 2
1+
#1592
0+
#1596
0$
1"
b1001000 1
b1001000 4
b11001000 2
b1010100010 ,
b1010100010 ;
1+
#1600
0+
#1604
0#
1*
1)
1$
1!
b1010011111 ,
b1010011111 ;
b1001001 1
b1001001 4
b11001001 2
1+
#1608
0+
#1612
0"
b1001010 1
b1001010 4
b11001010 2
b1010011101 ,
b1010011101 ;
1+
#1616
0+
#1620
0$
1"
0!
b1010011010 ,
b1010011010 ;
b1001011 1
b1001011 4
b11001011 2
1+
#1624
0+
#1628
0"
b1001100 1
b1001100 4
b11001100 2
b1010011000 ,
b1010011000 ;
1+
#1632
0+
#1636
0)
1$
1!
b1010010101 ,
b1010010101 ;
b1001101 1
b1001101 4
b11001101 2
1+
#1640
0+
#1644
0$
1"
b1001110 1
b1001110 4
b11001110 2
b1010010011 ,
b1010010011 ;
1+
#1648
0+
#1652
0"
0!
b1010010000 ,
b1010010000 ;
b1001111 1
b1001111 4
b11001111 2
1+
#1656
0+
#1660
0*
1)
1$
1!
b1010000 1
b1010000 4
b11010000 2
b1010001101 ,
b1010001101 ;
1+
#1664
0+
#1668
0$
1"
b1010001011 ,
b1010001011 ;
b1010001 1
b1010001 4
b11010001 2
1+
#1672
0+
#1676
0"
0!
b1010010 1
b1010010 4
b11010010 2
b1010001000 ,
b1010001000 ;
1+
#1680
0+
#1684
0)
1$
1"
b1010000110 ,
b1010000110 ;
b1010011 1
b1010011 4
b11010011 2
1+
#1688
0+
#1692
0$
1!
b1010100 1
b1010100 4
b11010100 2
b1010000011 ,
b1010000011 ;
1+
#1696
0+
#1700
0"
0!
b1010000000 ,
b1010000000 ;
b1010101 1
b1010101 4
b11010101 2
1+
#1704
0+
#1708
0%
1(
1#
1*
1)
1$
1!
b1010110 1
b1010110 4
b11010110 2
b1001111101 ,
b1001111101 ;
1+
#1712
0+
#1716
0$
1"
b1001111011 ,
b1001111011 ;
b1010111 1
b1010111 4
b11010111 2
1+
#1720
0+
#1724
0"
0!
b1011000 1
b1011000 4
b11011000 2
b1001111000 ,
b1001111000 ;
1+
#1728
0+
#1732
0)
1$
1!
b1001110101 ,
b1001110101 ;
b1011001 1
b1011001 4
b11011001 2
1+
#1736
0+
#1740
0$
1"
0!
b1011010 1
b1011010 4
b11011010 2
b1001110010 ,
b1001110010 ;
1+
#1744
0+
#1748
0"
b1001110000 ,
b1001110000 ;
b1011011 1
b1011011 4
b11011011 2
1+
#1752
0+
#1756
0*
1)
1$
1!
b1011100 1
b1011100 4
b11011100 2
b1001101101 ,
b1001101101 ;
1+
#1760
0+
#1764
0$
1"
0!
b1001101010 ,
b1001101010 ;
b1011101 1
b1011101 4
b11011101 2
1+
#1768
0+
#1772
0)
1$
1!
b1011110 1
b1011110 4
b11011110 2
b1001100111 ,
b1001100111 ;
1+
#1776
0+
#1780
0"
0!
b1001100100 ,
b1001100100 ;
b1011111 1
b1011111 4
b11011111 2
1+
#1784
0+
#1788
0$
1!
b1100000 1
b1100000 4
b11100000 2
b1001100001 ,
b1001100001 ;
1+
#1792
0+
#1796
0#
1*
1)
1$
1"
0!
b1001011110 ,
b1001011110 ;
b1100001 1
b1100001 4
b11100001 2
1+
#1800
0+
#1804
0$
1!
b1100010 1
b1100010 4
b11100010 2
b1001011011 ,
b1001011011 ;
1+
#1808
0+
#1812
0"
b1001011001 ,
b1001011001 ;
b1100011 1
b1100011 4
b11100011 2
1+
#1816
0+
#1820
0)
1$
1"
0!
b1100100 1
b1100100 4
b11100100 2
b1001010110 ,
b1001010110 ;
1+
#1824
0+
#1828
0$
1!
b1001010011 ,
b1001010011 ;
b1100101 1
b1100101 4
b11100101 2
1+
#1832
0+
#1836
0"
0!
b1100110 1
b1100110 4
b11100110 2
b1001010000 ,
b1001010000 ;
1+
#1840
0+
#1844
0*
1)
1$
1!
b1001001101 ,
b1001001101 ;
b1100111 1
b1100111 4
b11100111 2
1+
#1848
0+
#1852
0$
1"
0!
b1101000 1
b1101000 4
b11101000 2
b1001001010 ,
b1001001010 ;
1+
#1856
0+
#1860
0)
1$
1!
b1001000111 ,
b1001000111 ;
b1101001 1
b1101001 4
b11101001 2
1+
#1864
0+
#1868
0"
0!
b1101010 1
b1101010 4
b11101010 2
b1001000100 ,
b1001000100 ;
1+
#1872
0+
#1876
0$
1!
b1001000001 ,
b1001000001 ;
b1101011 1
b1101011 4
b11101011 2
1+
#1880
0+
#1884
0(
1#
1*
1)
1$
1"
0!
b1101100 1
b1101100 4
b11101100 2
b1000111110 ,
b1000111110 ;
1+
#1888
0+
#1892
0$
1!
b1000111011 ,
b1000111011 ;
b1101101 1
b1101101 4
b11101101 2
1+
#1896
0+
#1900
0)
1$
b1101110 1
b1101110 4
b11101110 2
b1000110111 ,
b1000110111 ;
1+
#1904
0+
#1908
0"
0!
b1000110100 ,
b1000110100 ;
b1101111 1
b1101111 4
b11101111 2
1+
#1912
0+
#1916
0$
1!
b1110000 1
b1110000 4
b11110000 2
b1000110001 ,
b1000110001 ;
1+
#1920
0+
#1924
0*
1)
1$
1"
0!
b1000101110 ,
b1000101110 ;
b1110001 1
b1110001 4
b11110001 2
1+
#1928
0+
#1932
0$
1!
b1110010 1
b1110010 4
b11110010 2
b1000101011 ,
b1000101011 ;
1+
#1936
0+
#1940
0"
0!
b1000101000 ,
b1000101000 ;
b1110011 1
b1110011 4
b11110011 2
1+
#1944
0+
#1948
0)
1$
1!
b1110100 1
b1110100 4
b11110100 2
b1000100101 ,
b1000100101 ;
1+
#1952
0+
#1956
0$
1"
0!
b1000100010 ,
b1000100010 ;
b1110101 1
b1110101 4
b11110101 2
1+
#1960
0+
#1964
0#
1*
1)
1$
1!
b1110110 1
b1110110 4
b11110110 2
b1000011111 ,
b1000011111 ;
1+
#1968
0+
#1972
0"
0!
b1000011100 ,
b1000011100 ;
b1110111 1
b1110111 4
b11110111 2
1+
#1976
0+
#1980
0$
1!
b1111000 1
b1111000 4
b11111000 2
b1000011001 ,
b1000011001 ;
1+
#1984
0+
#1988
0)
1$
b1000010101 ,
b1000010101 ;
b1111001 1
b1111001 4
b11111001 2
1+
#1992
0+
#1996
0$
1"
0!
b1111010 1
b1111010 4
b11111010 2
b1000010010 ,
b1000010010 ;
1+
#2000
0+
#2004
0*
1)
1$
1!
b1000001111 ,
b1000001111 ;
b1111011 1
b1111011 4
b11111011 2
1+
#2008
0+
#2012
0"
0!
b1111100 1
b1111100 4
b11111100 2
b1000001100 ,
b1000001100 ;
1+
#2016
0+
#2020
0$
1!
b1000001001 ,
b1000001001 ;
b1111101 1
b1111101 4
b11111101 2
1+
#2024
0+
#2028
0)
1$
1"
0!
b1111110 1
b1111110 4
b11111110 2
b1000000110 ,
b1000000110 ;
1+
#2032
0+
